906112 717382 525
563896 782563 509
688259 289349 509
554028 315165 470
313298 119652 443
821297 608814 509
23551 520981 470
973027 568576 525
687436 324955 509
175171 448953 449
663719 102029 509
462994 743817 509
730655 324050 509
262983 238202 368
18182 442850 449
70756 966187 525
387351 338092 441
735269 973038 525
85479 857526 525
506670 328050 449
286072 481355 449
353828 844775 525
653081 397300 509
660745 814878 504
263833 630989 509
541710 348268 470
180617 397027 443
278045 84616 443
229190 786094 509
34550 498929 449
275234 394428 441
498544 30349 449
86130 613729 470
542675 284597 470
613046 654339 509
139288 545422 470
267252 927906 525
932537 828476 525
536410 23182 470
742238 190808 509
595955 137370 470
157417 176543 370
727018 400671 509
341550 183029 443
607567 914159 525
822400 211185 509
454462 419562 418
727279 465222 509
93271 94155 284
130188 820649 509
928149 578264 525
583327 101004 470
937020 114586 525
5987 474286 449
409676 491034 449
260995 396775 441
689970 77304 509
492596 555830 470
473353 868809 525
100028 390103 443
673241 972295 525
108258 159899 383
218240 751896 509
920688 550007 525
30621 47860 324
340575 355085 441
162267 55171 383
952015 337259 525
298998 615520 470
174557 205897 365
118221 583179 470
897510 342808 525
912146 622940 525
570906 637776 509
116463 287205 443
578378 759239 509
141090 362858 443
47616 329299 443
443668 660911 509
303122 316941 384
322998 902613 525
423693 257618 449
218819 333844 443
73361 595599 470
399902 517231 470
881154 526563 525
970904 780326 525
537334 751696 509
189939 341885 443
964822 504959 525
495075 993264 525
955845 245994 525
15068 384056 443
92684 522976 470
146123 595406 470
757045 984698 525
18460 222139 386
83235 199425 383
587335 759235 509
971953 735694 525
839400 208499 525
563244 131998 470
867227 302635 525
660984 380772 509
175213 590983 470
113404 946581 525
146280 926029 525
769637 824850 468
555857 130039 470
25460 773388 509
408673 721388 509
37152 777811 509
166427 264602 443
118313 933184 525
168848 197736 365
391678 483816 449
83138 686497 509
253060 895025 525
459371 547280 470
583282 288145 470
441511 522014 470
298961 224294 443
581424 256654 470
482056 809777 509
866468 5217 525
455303 897658 525
243496 132439 443
414180 754799 509
343106 952852 525
450452 516448 470
229910 482125 449
922965 281874 525
477364 418675 444
725980 635025 504
925426 350020 525
687722 812934 504
105641 125102 354
132669 152840 375
286521 981535 525
419811 704449 509
154899 337009 443
764157 340001 509
98945 668677 509
988081 782242 525
686242 234142 509
113982 23382 354
159513 578068 470
639594 834622 504
523009 837851 525
375008 416158 449
845205 853708 419
47197 88613 351
966091 178973 525
742513 226912 509
866325 574842 525
828262 689062 504
378145 495795 449
386582 779511 509
253889 442453 449
706434 82694 509
369844 62517 443
474197 120590 449
910305 124913 525
808540 61196 509
907474 228772 525
730991 767433 424
397693 916486 525
86367 459123 449
827651 56195 509
146985 813235 509
929615 861435 476
396715 149945 443
631858 544233 509
756939 637496 504
738628 529282 509
970040 560812 525
527413 437049 470
789374 579692 509
757234 933538 525
960223 466020 525
615114 672226 509
895019 765554 525
169992 886128 525
271940 388324 441
354071 79345 443
260910 478529 449
868191 222810 525
172423 320767 443
519232 558989 452
387309 4264 443
154206 92637 375
380996 379705 379
841318 517484 525
682843 227556 509
885745 34400 525
736154 827228 468
428760 707013 509
190243 270848 443
830575 583149 509
867965 19417 525
255975 198078 443
291348 807810 509
2775 316825 443
60768 46351 340
94284 562621 470
112548 924969 525
193740 328986 443
407907 63869 443
568319 948102 525
45091 512009 470
255419 975277 525
636311 578097 509
637121 418016 509
748617 322956 509
68124 737524 509
858278 34741 525
663289 26856 509
50802 709654 509
616199 58026 470
121932 915735 525
670322 500498 509
536625 177032 470
741904 507455 509
403149 401356 299
844138 239909 525
510090 142098 449
62431 907601 525
107488 244366 443
330661 808255 509
573275 583082 390
141000 48252 354
639951 413142 509
295045 648006 509
207775 216308 373
329609 239239 407
784395 541731 509
978053 502647 525
696672 530348 509
616914 114625 470
255695 546273 470
581358 830525 509
744860 254118 509
512887 179724 470
105178 449379 449
181030 828734 509
683960 296618 509
233441 455678 449
350116 366536 410
846581 667628 525
495115 70958 449